{
  "project_info": {
    "project_number": "1096629017892",
    "firebase_url": "https://nsts-android.firebaseio.com",
    "project_id": "nsts-android",
    "storage_bucket": "nsts-android.appspot.com"
  },
  "client": [
    {
      "client_info": {
        "mobilesdk_app_id": "1:1096629017892:android:868d45e87fd11c65c727b1",
        "android_client_info": {
          "package_name": "com.orange5.nsts"
        }
      },
      "oauth_client": [
        {
          "client_id": "1096629017892-lv50dm2nq9s90aaq52f6p0mn51gnra0g.apps.googleusercontent.com",
          "client_type": 3
        }
      ],
      "api_key": [
        {
          "current_key": "AIzaSyBhLgKReJczYTAPD6sKis4-MBEUwQOXlvI"
        }
      ],
      "services": {
        "appinvite_service": {
          "other_platform_oauth_client": [
            {
              "client_id": "1096629017892-lv50dm2nq9s90aaq52f6p0mn51gnra0g.apps.googleusercontent.com",
              "client_type": 3
            }
          ]
        }
      }
    }
  ],
  "configuration_version": "1"
}